25 Rastreo de contactos | EpiRhandbook en español
…
Con la estructura de datos Go.Data, los datos relationships contienen las edades tanto de los casos como de los contactos, por lo que podrías utilizar ese conjunto de datos y crear una pirámide de edades que muestre las diferencias entre estos dos grupos de personas. El dataframe relationships será mutado para transformar las columnas numéricas de edad en categorías (véase la página de limpieza de datos y funciones básicas). También pivotamos el dataframe a largo para facilitar el trazado con ggplot2 (ver Pivotar datos).

relation_age <- relationships %>% 
  select(source_age, target_age) %>% 
  transmute(                              # transmute is like mutate() but removes all other columns not mentioned
    source_age_class = epikit::age_categories(source_age, breakers = seq(0, 80, 5)),
    target_age_class = epikit::age_categories(target_age, breakers = seq(0, 80, 5)),
    ) %>% 
  pivot_longer(cols = contains("class"), names_to = "category", values_to = "age_class")  # pivot longer

relation_age

## # A tibble: 200 x 2
##    category         age_class
##    <chr>            <fct>    
##  1 source_age_class 80+      
##  2 target_age_class 15-19    
##  3 source_age_class <NA>     
##  4 target_age_class 50-54    
##  5 source_age_class <NA>     
##  6 target_age_class 20-24    
##  7 source_age_class 30-34    
##  8 target_age_class 45-49    
##  9 source_age_class 40-44    
## 10 target_age_class 30-34    
## # ... with 190 more rows
…
El número de contactos por caso puede ser una métrica importante para evaluar la calidad de la enumeración de los contactos y la conformidad de la población con la respuesta de salud pública.

Dependiendo de la estructura de datos, esto puede evaluarse con un juego de datos que contenga todos los casos y contactos. En el conjunto de datos de Go.Data, los vínculos entre los casos (“fuentes”) y los contactos (“objetivos”) se almacenan en relationships.

En este conjunto de datos, cada fila es un contacto, y el caso de origen aparece en la fila. No hay contactos que tengan relaciones con múltiples casos, pero si esto existiese, puede ser necesario tenerlos en cuenta antes de representarlo (¡y explorarlos también!).

Comenzamos contando el número de filas (contactos) por caso de origen. Esto se guarda como un dataframe.

contacts_per_case <- relationships %>% 
  count(source_visualid)

contacts_per_case

## # A tibble: 23 x 2
##    source_visualid     n
##    <chr>           <int>
##  1 CASE-2020-0001     13
##  2 CASE-2020-0002      5
##  3 CASE-2020-0003      2
##  4 CASE-2020-0004      4
##  5 CASE-2020-0005      5
##  6 CASE-2020-0006      3
##  7 CASE-2020-0008      3
##  8 CASE-2020-0009      3
##  9 CASE-2020-0010      3
## 10 CASE-2020-0012      3
## # ... with 13 more rows
…
